{
    "0a874ce2-6d69-4c3d-b375-806bed37e47f": {
        "key": "0a874ce2-6d69-4c3d-b375-806bed37e47f",
        "series_number": {
            "$key": "2c7b1cfe-93be-4888-afa3-33973d450fbc",
            "$table": "KernelVersion"
        },
        "series_number_collapsed": "57"
    }
}