{
    "6276f47f-2775-4d6f-82f9-df1bd967378c": {
        "key": "6276f47f-2775-4d6f-82f9-df1bd967378c",
        "series_number": {
            "$key": "64319f83-8bef-4167-99d0-fbf79b931d16",
            "$table": "KernelVersion"
        },
        "series_number_collapsed": "512"
    }
}