{
    "a33396ca-c7ad-4f97-9c92-72ac341f361c": {
        "key": "a33396ca-c7ad-4f97-9c92-72ac341f361c",
        "series_number": {
            "$key": "14d64293-43d1-44ac-b514-f8315dca9edc",
            "$table": "KernelVersion"
        },
        "series_number_collapsed": "53"
    }
}