{
    "ba2a58af-4bd3-4062-9bd8-17764dc143f4": {
        "key": "ba2a58af-4bd3-4062-9bd8-17764dc143f4",
        "series_number": {
            "$key": "ef752978-0039-4bae-86f2-9289cb27a36f",
            "$table": "KernelVersion"
        },
        "series_number_collapsed": "511"
    }
}