{
    "d72105d8-8ae2-4c03-b4a4-aac11db1edfe": {
        "key": "d72105d8-8ae2-4c03-b4a4-aac11db1edfe",
        "series_number": {
            "$key": "75499887-af74-46f6-96d9-f15d97f85071",
            "$table": "KernelVersion"
        },
        "series_number_collapsed": "56"
    }
}