{
    "f5fca8d2-00f5-47f4-9604-e001f70daec2": {
        "key": "f5fca8d2-00f5-47f4-9604-e001f70daec2",
        "series_number": {
            "$key": "0f667e51-205a-4f6a-b2f2-4a3327d9656e",
            "$table": "KernelVersion"
        },
        "series_number_collapsed": "58"
    }
}