{
    "fc683acd-38f8-4163-b6cf-e6cecaa6fd07": {
        "key": "fc683acd-38f8-4163-b6cf-e6cecaa6fd07",
        "series_number": {
            "$key": "ea035111-4221-4337-bf11-d043bef30de1",
            "$table": "KernelVersion"
        },
        "series_number_collapsed": "51"
    }
}