{
    "01cc9311-c95d-4f5b-a096-da3012c0158b": {
        "key": "01cc9311-c95d-4f5b-a096-da3012c0158b",
        "type": "mainline",
        "build_job_id": "190772146",
        "version": {
            "$key": "faf0118e-176d-4f51-aaad-f5bbc1e9f024",
            "$table": "KernelVersion"
        },
        "kernel_series": {
            "$key": "fc683acd-38f8-4163-b6cf-e6cecaa6fd07",
            "$table": "KernelSeries"
        },
        "workspace": {
            "$key": "d2135fd1-3f59-4bf6-814b-c807c1f7eff9",
            "$table": "Workspace"
        }
    }
}