{
    "0283cc3a-8673-4088-b1b7-ac882a4fcdd6": {
        "key": "0283cc3a-8673-4088-b1b7-ac882a4fcdd6",
        "type": "stable",
        "build_job_id": "609899226",
        "version": {
            "$key": "bc1dfe8c-4d0d-487e-9eda-bf27c9a2e120",
            "$table": "KernelVersion"
        },
        "kernel_series": {
            "$key": "0a874ce2-6d69-4c3d-b375-806bed37e47f",
            "$table": "KernelSeries"
        },
        "workspace": {
            "$key": "8b64bbb4-15a6-4182-a6f8-8c18da47c46e",
            "$table": "Workspace"
        }
    }
}