{
    "08a89344-3084-47f8-a524-cfdb20ec1be0": {
        "key": "08a89344-3084-47f8-a524-cfdb20ec1be0",
        "type": "mainline",
        "build_job_id": "256033130",
        "version": {
            "$key": "4d655653-b6f3-4a36-940f-b2e7e85ae604",
            "$table": "KernelVersion"
        },
        "kernel_series": {
            "$key": "a33396ca-c7ad-4f97-9c92-72ac341f361c",
            "$table": "KernelSeries"
        },
        "workspace": {
            "$key": "d2135fd1-3f59-4bf6-814b-c807c1f7eff9",
            "$table": "Workspace"
        }
    }
}