{
    "090d7e0d-7ac9-461d-b89c-62f9e3343c5f": {
        "key": "090d7e0d-7ac9-461d-b89c-62f9e3343c5f",
        "type": "stable",
        "build_job_id": "174763244",
        "version": {
            "$key": "9fa28f03-6aa6-4b01-8e36-3245dad7ef07",
            "$table": "KernelVersion"
        },
        "kernel_series": {
            "$key": "e7b394ff-e108-4ff9-816d-bb7d36ea5e7d",
            "$table": "KernelSeries"
        },
        "workspace": {
            "$key": "8154adab-14d1-47d2-9e9e-cf9d7b81e4c7",
            "$table": "Workspace"
        }
    }
}