{
    "20d6c386-f90b-495b-b2a7-9aea46534d5a": {
        "key": "20d6c386-f90b-495b-b2a7-9aea46534d5a",
        "type": "stable",
        "build_job_id": "704338652",
        "version": {
            "$key": "fbf23cb6-81bf-4118-a440-1802a945bf1e",
            "$table": "KernelVersion"
        },
        "kernel_series": {
            "$key": "0a874ce2-6d69-4c3d-b375-806bed37e47f",
            "$table": "KernelSeries"
        },
        "workspace": {
            "$key": "8b64bbb4-15a6-4182-a6f8-8c18da47c46e",
            "$table": "Workspace"
        }
    }
}