{
    "210f8dec-4328-45d2-b559-47b17c4d4005": {
        "key": "210f8dec-4328-45d2-b559-47b17c4d4005",
        "type": "stable",
        "build_job_id": "578597829",
        "version": {
            "$key": "7694f85c-b86f-42bb-99f6-9f5e8abd1a75",
            "$table": "KernelVersion"
        },
        "kernel_series": {
            "$key": "d72105d8-8ae2-4c03-b4a4-aac11db1edfe",
            "$table": "KernelSeries"
        },
        "workspace": {
            "$key": "8b64bbb4-15a6-4182-a6f8-8c18da47c46e",
            "$table": "Workspace"
        }
    }
}