{
    "28665800-3143-45f2-95c1-a3a7bf6b2c2a": {
        "key": "28665800-3143-45f2-95c1-a3a7bf6b2c2a",
        "type": "stable",
        "build_job_id": "666059397",
        "version": {
            "$key": "8cb3604e-7cb4-4b54-90d7-3890ac3b5a17",
            "$table": "KernelVersion"
        },
        "kernel_series": {
            "$key": "0a874ce2-6d69-4c3d-b375-806bed37e47f",
            "$table": "KernelSeries"
        },
        "workspace": {
            "$key": "8b64bbb4-15a6-4182-a6f8-8c18da47c46e",
            "$table": "Workspace"
        }
    }
}