{
    "2b4cf463-a163-4a3f-829b-23633c21cea0": {
        "key": "2b4cf463-a163-4a3f-829b-23633c21cea0",
        "type": "stable",
        "build_job_id": "324302254",
        "version": {
            "$key": "0680d9f8-8467-4ab4-93a8-508cc656a904",
            "$table": "KernelVersion"
        },
        "kernel_series": {
            "$key": "a33396ca-c7ad-4f97-9c92-72ac341f361c",
            "$table": "KernelSeries"
        },
        "workspace": {
            "$key": "d2135fd1-3f59-4bf6-814b-c807c1f7eff9",
            "$table": "Workspace"
        }
    }
}