{
    "2b672b98-9e9c-4a25-b577-37d1f8ab8714": {
        "key": "2b672b98-9e9c-4a25-b577-37d1f8ab8714",
        "type": "stable",
        "build_job_id": "228971991",
        "version": {
            "$key": "d3944afd-9534-4419-962f-e65d99386958",
            "$table": "KernelVersion"
        },
        "kernel_series": {
            "$key": "fc683acd-38f8-4163-b6cf-e6cecaa6fd07",
            "$table": "KernelSeries"
        },
        "workspace": {
            "$key": "d2135fd1-3f59-4bf6-814b-c807c1f7eff9",
            "$table": "Workspace"
        }
    }
}