{
    "2b8f56a7-57d0-4652-a1f0-d163858d21c1": {
        "key": "2b8f56a7-57d0-4652-a1f0-d163858d21c1",
        "type": "stable",
        "build_job_id": "590104386",
        "version": {
            "$key": "6f2bbb1a-6b72-4eae-9ef1-d5ff4e9b591c",
            "$table": "KernelVersion"
        },
        "kernel_series": {
            "$key": "d72105d8-8ae2-4c03-b4a4-aac11db1edfe",
            "$table": "KernelSeries"
        },
        "workspace": {
            "$key": "8b64bbb4-15a6-4182-a6f8-8c18da47c46e",
            "$table": "Workspace"
        }
    }
}