{
    "3190e55d-f472-45a7-b1be-637f27a043e6": {
        "key": "3190e55d-f472-45a7-b1be-637f27a043e6",
        "type": "stable",
        "build_job_id": "734603633",
        "version": {
            "$key": "698e5bce-26be-4ed1-84c9-2bb9a6724d69",
            "$table": "KernelVersion"
        },
        "kernel_series": {
            "$key": "f5fca8d2-00f5-47f4-9604-e001f70daec2",
            "$table": "KernelSeries"
        },
        "workspace": {
            "$key": "8b64bbb4-15a6-4182-a6f8-8c18da47c46e",
            "$table": "Workspace"
        }
    }
}