{
    "35ae2a53-b166-4b02-8ff9-3ba88907b928": {
        "key": "35ae2a53-b166-4b02-8ff9-3ba88907b928",
        "type": "mainline",
        "build_job_id": "159157466",
        "version": {
            "$key": "a3b06c28-099e-4dab-a48e-5d0f264db319",
            "$table": "KernelVersion"
        },
        "kernel_series": {
            "$key": "e7b394ff-e108-4ff9-816d-bb7d36ea5e7d",
            "$table": "KernelSeries"
        },
        "workspace": {
            "$key": "8154adab-14d1-47d2-9e9e-cf9d7b81e4c7",
            "$table": "Workspace"
        }
    }
}