{
    "4553ffdd-abe0-404e-a96f-072bf363dde8": {
        "key": "4553ffdd-abe0-404e-a96f-072bf363dde8",
        "type": "stable",
        "build_job_id": "124467365",
        "version": {
            "$key": "0bde98ee-63ea-4e11-9e9d-6528b49e4b6a",
            "$table": "KernelVersion"
        },
        "kernel_series": {
            "$key": "db25ab70-b6ca-4887-a07e-9acf2552b0b0",
            "$table": "KernelSeries"
        },
        "workspace": {
            "$key": "3df99645-d619-4f9b-ad54-8de2bed6ee7e",
            "$table": "Workspace"
        }
    }
}