{
    "464c6619-5bb7-4f43-96d2-f16f81e51385": {
        "key": "464c6619-5bb7-4f43-96d2-f16f81e51385",
        "type": "stable",
        "build_job_id": "364699765",
        "version": {
            "$key": "f06b495d-4159-40e0-8a78-e1a983aa67d9",
            "$table": "KernelVersion"
        },
        "kernel_series": {
            "$key": "a33396ca-c7ad-4f97-9c92-72ac341f361c",
            "$table": "KernelSeries"
        },
        "workspace": {
            "$key": "d2135fd1-3f59-4bf6-814b-c807c1f7eff9",
            "$table": "Workspace"
        }
    }
}