{
    "46a12eb8-55e4-4173-80e4-2805d00a73f5": {
        "key": "46a12eb8-55e4-4173-80e4-2805d00a73f5",
        "type": "stable",
        "build_job_id": "251170313",
        "version": {
            "$key": "0b596ff4-65cb-46ac-bfa8-95fe2d042efc",
            "$table": "KernelVersion"
        },
        "kernel_series": {
            "$key": "d9e104f5-bebb-45de-8702-b7de2a84f8d7",
            "$table": "KernelSeries"
        },
        "workspace": {
            "$key": "d2135fd1-3f59-4bf6-814b-c807c1f7eff9",
            "$table": "Workspace"
        }
    }
}