{
    "46e7554b-2503-48ee-885f-06d36824679f": {
        "key": "46e7554b-2503-48ee-885f-06d36824679f",
        "type": "stable",
        "build_job_id": "569950118",
        "version": {
            "$key": "32198f98-8bf2-44e7-9a01-c6cd386b63e0",
            "$table": "KernelVersion"
        },
        "kernel_series": {
            "$key": "d72105d8-8ae2-4c03-b4a4-aac11db1edfe",
            "$table": "KernelSeries"
        },
        "workspace": {
            "$key": "8b64bbb4-15a6-4182-a6f8-8c18da47c46e",
            "$table": "Workspace"
        }
    }
}