{
    "47b15ba8-cede-433a-8fcd-fdb7f837947e": {
        "key": "47b15ba8-cede-433a-8fcd-fdb7f837947e",
        "type": "stable",
        "build_job_id": "184916947",
        "version": {
            "$key": "8d7a1e83-c123-4516-a8e3-0220012d7a4c",
            "$table": "KernelVersion"
        },
        "kernel_series": {
            "$key": "e7b394ff-e108-4ff9-816d-bb7d36ea5e7d",
            "$table": "KernelSeries"
        },
        "workspace": {
            "$key": "8154adab-14d1-47d2-9e9e-cf9d7b81e4c7",
            "$table": "Workspace"
        }
    }
}