{
    "53add3da-2df1-449f-a535-a2774a329567": {
        "key": "53add3da-2df1-449f-a535-a2774a329567",
        "type": "stable",
        "build_job_id": "168513119",
        "version": {
            "$key": "291a035c-124e-4632-8b5f-bc05efb13c0a",
            "$table": "KernelVersion"
        },
        "kernel_series": {
            "$key": "83aea4d0-b730-46d1-928e-cbb0afb57827",
            "$table": "KernelSeries"
        },
        "workspace": {
            "$key": "de136960-11fb-4d66-94ee-deab390f2e1e",
            "$table": "Workspace"
        }
    }
}