{
    "695004af-3888-4bf8-8854-a62b4909f15f": {
        "key": "695004af-3888-4bf8-8854-a62b4909f15f",
        "type": "stable",
        "build_job_id": "128323223",
        "version": {
            "$key": "edb11c46-88e8-4e9e-8583-d58abf106894",
            "$table": "KernelVersion"
        },
        "kernel_series": {
            "$key": "db25ab70-b6ca-4887-a07e-9acf2552b0b0",
            "$table": "KernelSeries"
        },
        "workspace": {
            "$key": "112ecf7f-72dd-412d-97d9-5bf891923acd",
            "$table": "Workspace"
        }
    }
}