{
    "6cc62acb-536c-42a0-8914-8be0953f8787": {
        "key": "6cc62acb-536c-42a0-8914-8be0953f8787",
        "type": "mainline",
        "build_job_id": "645911504",
        "version": {
            "$key": "0da7db1a-4913-4bf2-8d57-200af67a28ca",
            "$table": "KernelVersion"
        },
        "kernel_series": {
            "$key": "f5fca8d2-00f5-47f4-9604-e001f70daec2",
            "$table": "KernelSeries"
        },
        "workspace": {
            "$key": "8b64bbb4-15a6-4182-a6f8-8c18da47c46e",
            "$table": "Workspace"
        }
    }
}