{
    "7df43b66-e3c2-4344-8e52-e389dbf738f5": {
        "key": "7df43b66-e3c2-4344-8e52-e389dbf738f5",
        "type": "stable",
        "build_job_id": "123428918",
        "version": {
            "$key": "6adff62b-370e-4693-b4de-308093346436",
            "$table": "KernelVersion"
        },
        "kernel_series": {
            "$key": "64bb0870-32ce-4051-ba4c-8d83b53bee00",
            "$table": "KernelSeries"
        },
        "workspace": {
            "$key": "3df99645-d619-4f9b-ad54-8de2bed6ee7e",
            "$table": "Workspace"
        }
    }
}