{
    "815cdf49-3344-443c-ad33-a1cfa38d1942": {
        "key": "815cdf49-3344-443c-ad33-a1cfa38d1942",
        "type": "stable",
        "build_job_id": "584696117",
        "version": {
            "$key": "11ed7b40-1f6b-498c-890c-fc4861c78f62",
            "$table": "KernelVersion"
        },
        "kernel_series": {
            "$key": "d72105d8-8ae2-4c03-b4a4-aac11db1edfe",
            "$table": "KernelSeries"
        },
        "workspace": {
            "$key": "8b64bbb4-15a6-4182-a6f8-8c18da47c46e",
            "$table": "Workspace"
        }
    }
}