{
    "88ae3e6f-8ded-4532-8395-c1fe1db51822": {
        "key": "88ae3e6f-8ded-4532-8395-c1fe1db51822",
        "type": "mainline",
        "build_job_id": "279673963",
        "version": {
            "$key": "359a8579-06f4-4ccc-b2e1-85cb4b545162",
            "$table": "KernelVersion"
        },
        "kernel_series": {
            "$key": "a33396ca-c7ad-4f97-9c92-72ac341f361c",
            "$table": "KernelSeries"
        },
        "workspace": {
            "$key": "d2135fd1-3f59-4bf6-814b-c807c1f7eff9",
            "$table": "Workspace"
        }
    }
}