{
    "8b7e26a8-c349-4eff-8321-53281cbdc584": {
        "key": "8b7e26a8-c349-4eff-8321-53281cbdc584",
        "type": "stable",
        "build_job_id": "1244659933",
        "version": {
            "$key": "b12dd2e9-5b6d-47e4-bb49-5f8c4f6c7e24",
            "$table": "KernelVersion"
        },
        "kernel_series": {
            "$key": "6276f47f-2775-4d6f-82f9-df1bd967378c",
            "$table": "KernelSeries"
        },
        "workspace": {
            "$key": "b4638d93-ebaf-4e2b-bc07-c4b7a3bd5905",
            "$table": "Workspace"
        }
    }
}