{
    "8f7d24ea-1374-4aec-b326-58f6487397c6": {
        "key": "8f7d24ea-1374-4aec-b326-58f6487397c6",
        "type": "mainline",
        "build_job_id": "360214350",
        "version": {
            "$key": "042039d2-10a7-4450-a8cf-2ea00d4f6339",
            "$table": "KernelVersion"
        },
        "kernel_series": {
            "$key": "10b79fe1-6d36-4998-b1c0-f5683c414f6f",
            "$table": "KernelSeries"
        },
        "workspace": {
            "$key": "70571723-f926-420f-a948-51d67f12d619",
            "$table": "Workspace"
        }
    }
}