{
    "9056825a-9598-4ee9-98cf-83778795ebc5": {
        "key": "9056825a-9598-4ee9-98cf-83778795ebc5",
        "type": "mainline",
        "build_job_id": "614817084",
        "version": {
            "$key": "18d9b74a-0aef-4142-9af7-e5c51c18d77e",
            "$table": "KernelVersion"
        },
        "kernel_series": {
            "$key": "f5fca8d2-00f5-47f4-9604-e001f70daec2",
            "$table": "KernelSeries"
        },
        "workspace": {
            "$key": "8b64bbb4-15a6-4182-a6f8-8c18da47c46e",
            "$table": "Workspace"
        }
    }
}