{
    "95f69ebb-65c4-4cbc-a034-5618d88ab3ac": {
        "key": "95f69ebb-65c4-4cbc-a034-5618d88ab3ac",
        "type": "stable",
        "build_job_id": "223099136",
        "version": {
            "$key": "f3aa56f1-b4e6-4137-8f30-b89d812b69b5",
            "$table": "KernelVersion"
        },
        "kernel_series": {
            "$key": "fc683acd-38f8-4163-b6cf-e6cecaa6fd07",
            "$table": "KernelSeries"
        },
        "workspace": {
            "$key": "d2135fd1-3f59-4bf6-814b-c807c1f7eff9",
            "$table": "Workspace"
        }
    }
}