{
    "968a78e2-7a2d-4be4-972f-aab6e0bddb8d": {
        "key": "968a78e2-7a2d-4be4-972f-aab6e0bddb8d",
        "type": "stable",
        "build_job_id": "180230439",
        "version": {
            "$key": "e4bf1597-5dff-45f5-a9da-58151cd35a01",
            "$table": "KernelVersion"
        },
        "kernel_series": {
            "$key": "83aea4d0-b730-46d1-928e-cbb0afb57827",
            "$table": "KernelSeries"
        },
        "workspace": {
            "$key": "de136960-11fb-4d66-94ee-deab390f2e1e",
            "$table": "Workspace"
        }
    }
}