{
    "9b7619e7-6c5a-4f77-8fd6-125ce756e2f4": {
        "key": "9b7619e7-6c5a-4f77-8fd6-125ce756e2f4",
        "type": "stable",
        "build_job_id": "706157050",
        "version": {
            "$key": "6591743c-1d40-48ec-b9e5-85c09496ebdc",
            "$table": "KernelVersion"
        },
        "kernel_series": {
            "$key": "f5fca8d2-00f5-47f4-9604-e001f70daec2",
            "$table": "KernelSeries"
        },
        "workspace": {
            "$key": "8b64bbb4-15a6-4182-a6f8-8c18da47c46e",
            "$table": "Workspace"
        }
    }
}