{
    "9d28c1df-61e9-47d6-9b25-4f44db89d264": {
        "key": "9d28c1df-61e9-47d6-9b25-4f44db89d264",
        "type": "stable",
        "build_job_id": "314039035",
        "version": {
            "$key": "6c00fe37-8002-46aa-8a07-09f681964fa3",
            "$table": "KernelVersion"
        },
        "kernel_series": {
            "$key": "a33396ca-c7ad-4f97-9c92-72ac341f361c",
            "$table": "KernelSeries"
        },
        "workspace": {
            "$key": "d2135fd1-3f59-4bf6-814b-c807c1f7eff9",
            "$table": "Workspace"
        }
    }
}