{
    "9f185422-f719-46fa-913f-a2c70dab86ce": {
        "key": "9f185422-f719-46fa-913f-a2c70dab86ce",
        "type": "stable",
        "build_job_id": "202468699",
        "version": {
            "$key": "f07e85da-3cba-43da-a804-ea5e8f9ac534",
            "$table": "KernelVersion"
        },
        "kernel_series": {
            "$key": "e7b394ff-e108-4ff9-816d-bb7d36ea5e7d",
            "$table": "KernelSeries"
        },
        "workspace": {
            "$key": "2a164900-77b2-4ae6-bcf6-58de62e59924",
            "$table": "Workspace"
        }
    }
}