{
    "a62cfb4e-5533-4384-8f32-5e36fd927b3f": {
        "key": "a62cfb4e-5533-4384-8f32-5e36fd927b3f",
        "type": "stable",
        "build_job_id": "151541520",
        "version": {
            "$key": "b38a537e-0c94-4d5b-9bd3-cacc4f62510d",
            "$table": "KernelVersion"
        },
        "kernel_series": {
            "$key": "83aea4d0-b730-46d1-928e-cbb0afb57827",
            "$table": "KernelSeries"
        },
        "workspace": {
            "$key": "de136960-11fb-4d66-94ee-deab390f2e1e",
            "$table": "Workspace"
        }
    }
}