{
    "a81d5ab9-2907-427a-97b7-32f17863fbad": {
        "key": "a81d5ab9-2907-427a-97b7-32f17863fbad",
        "type": "stable",
        "build_job_id": "172202257",
        "version": {
            "$key": "ec5a119d-3b16-4bcb-856d-6d57a080a223",
            "$table": "KernelVersion"
        },
        "kernel_series": {
            "$key": "83aea4d0-b730-46d1-928e-cbb0afb57827",
            "$table": "KernelSeries"
        },
        "workspace": {
            "$key": "de136960-11fb-4d66-94ee-deab390f2e1e",
            "$table": "Workspace"
        }
    }
}