{
    "a8f39d66-79e8-4822-9a94-aea1e8762116": {
        "key": "a8f39d66-79e8-4822-9a94-aea1e8762116",
        "type": "mainline",
        "build_job_id": "635091695",
        "version": {
            "$key": "c1f43f91-5d64-4e1a-9e7a-4e7eed7c5b5c",
            "$table": "KernelVersion"
        },
        "kernel_series": {
            "$key": "f5fca8d2-00f5-47f4-9604-e001f70daec2",
            "$table": "KernelSeries"
        },
        "workspace": {
            "$key": "8b64bbb4-15a6-4182-a6f8-8c18da47c46e",
            "$table": "Workspace"
        }
    }
}