{
    "ab919e9e-f55c-48b3-aaa8-623b61bcabe4": {
        "key": "ab919e9e-f55c-48b3-aaa8-623b61bcabe4",
        "type": "stable",
        "build_job_id": "1020226216",
        "version": {
            "$key": "4a65ced2-1591-4335-a962-cc57ef6410e6",
            "$table": "KernelVersion"
        },
        "kernel_series": {
            "$key": "57d7cc71-21aa-4a7d-9c6d-55c1a0566025",
            "$table": "KernelSeries"
        },
        "workspace": {
            "$key": "b4638d93-ebaf-4e2b-bc07-c4b7a3bd5905",
            "$table": "Workspace"
        }
    }
}