{
    "bdc5ea13-1d12-4d7b-bbbf-57c3dbd3ff0a": {
        "key": "bdc5ea13-1d12-4d7b-bbbf-57c3dbd3ff0a",
        "type": "stable",
        "build_job_id": "318739964",
        "version": {
            "$key": "0a3428fc-babf-4073-b597-3f5f077fec47",
            "$table": "KernelVersion"
        },
        "kernel_series": {
            "$key": "d9e104f5-bebb-45de-8702-b7de2a84f8d7",
            "$table": "KernelSeries"
        },
        "workspace": {
            "$key": "d2135fd1-3f59-4bf6-814b-c807c1f7eff9",
            "$table": "Workspace"
        }
    }
}