{
    "be097c59-a2f1-47d7-876d-4cb189eec0c9": {
        "key": "be097c59-a2f1-47d7-876d-4cb189eec0c9",
        "type": "stable",
        "build_job_id": "203551004",
        "version": {
            "$key": "156fe975-1927-458e-a4d8-3ca89d38a190",
            "$table": "KernelVersion"
        },
        "kernel_series": {
            "$key": "e7b394ff-e108-4ff9-816d-bb7d36ea5e7d",
            "$table": "KernelSeries"
        },
        "workspace": {
            "$key": "2a164900-77b2-4ae6-bcf6-58de62e59924",
            "$table": "Workspace"
        }
    }
}