{
    "bfcb5d11-17e7-43e5-a3c8-f8dd779880d7": {
        "key": "bfcb5d11-17e7-43e5-a3c8-f8dd779880d7",
        "type": "stable",
        "build_job_id": "224625618",
        "version": {
            "$key": "c6b76ae2-ec5d-4cf4-8fb6-5e536999bfd1",
            "$table": "KernelVersion"
        },
        "kernel_series": {
            "$key": "e7b394ff-e108-4ff9-816d-bb7d36ea5e7d",
            "$table": "KernelSeries"
        },
        "workspace": {
            "$key": "2a164900-77b2-4ae6-bcf6-58de62e59924",
            "$table": "Workspace"
        }
    }
}