{
    "bfcf9897-6bf9-4c64-9cf4-174b9fea361f": {
        "key": "bfcf9897-6bf9-4c64-9cf4-174b9fea361f",
        "type": "stable",
        "build_job_id": "265434420",
        "version": {
            "$key": "2216fb68-faac-4b86-8886-e559d08c6d45",
            "$table": "KernelVersion"
        },
        "kernel_series": {
            "$key": "d9e104f5-bebb-45de-8702-b7de2a84f8d7",
            "$table": "KernelSeries"
        },
        "workspace": {
            "$key": "d2135fd1-3f59-4bf6-814b-c807c1f7eff9",
            "$table": "Workspace"
        }
    }
}