{
    "c0507087-a24c-456a-a848-ec9b77d1d693": {
        "key": "c0507087-a24c-456a-a848-ec9b77d1d693",
        "type": "stable",
        "build_job_id": "213955058",
        "version": {
            "$key": "1bedd5c4-8b32-4165-be32-3767a7ec7df7",
            "$table": "KernelVersion"
        },
        "kernel_series": {
            "$key": "fc683acd-38f8-4163-b6cf-e6cecaa6fd07",
            "$table": "KernelSeries"
        },
        "workspace": {
            "$key": "d2135fd1-3f59-4bf6-814b-c807c1f7eff9",
            "$table": "Workspace"
        }
    }
}