{
    "c3e0570f-4eaa-4518-9f34-a8daacf00553": {
        "key": "c3e0570f-4eaa-4518-9f34-a8daacf00553",
        "type": "stable",
        "build_job_id": "289237140",
        "version": {
            "$key": "cb37449c-f5ad-4279-8d00-25e36f2540ca",
            "$table": "KernelVersion"
        },
        "kernel_series": {
            "$key": "d9e104f5-bebb-45de-8702-b7de2a84f8d7",
            "$table": "KernelSeries"
        },
        "workspace": {
            "$key": "d2135fd1-3f59-4bf6-814b-c807c1f7eff9",
            "$table": "Workspace"
        }
    }
}