{
    "c43a16c5-a925-4f64-a6a8-5db64ca01358": {
        "key": "c43a16c5-a925-4f64-a6a8-5db64ca01358",
        "type": "mainline",
        "build_job_id": "170987797",
        "version": {
            "$key": "04b96934-b6e4-41ee-8654-06d4e0194e9b",
            "$table": "KernelVersion"
        },
        "kernel_series": {
            "$key": "e7b394ff-e108-4ff9-816d-bb7d36ea5e7d",
            "$table": "KernelSeries"
        },
        "workspace": {
            "$key": "8154adab-14d1-47d2-9e9e-cf9d7b81e4c7",
            "$table": "Workspace"
        }
    }
}