{
    "c7ae95c1-c023-4565-8141-5d5bfab9216f": {
        "key": "c7ae95c1-c023-4565-8141-5d5bfab9216f",
        "type": "stable",
        "build_job_id": "308478467",
        "version": {
            "$key": "03a3db71-43a5-4e44-9c75-8563118322cb",
            "$table": "KernelVersion"
        },
        "kernel_series": {
            "$key": "d9e104f5-bebb-45de-8702-b7de2a84f8d7",
            "$table": "KernelSeries"
        },
        "workspace": {
            "$key": "d2135fd1-3f59-4bf6-814b-c807c1f7eff9",
            "$table": "Workspace"
        }
    }
}