{
    "ddc6e30d-b4e3-4c5b-8a19-4e0f0fba6b3b": {
        "key": "ddc6e30d-b4e3-4c5b-8a19-4e0f0fba6b3b",
        "type": "mainline",
        "build_job_id": "265610437",
        "version": {
            "$key": "f398167d-1a89-4a0c-9640-42b44ed5dfbf",
            "$table": "KernelVersion"
        },
        "kernel_series": {
            "$key": "a33396ca-c7ad-4f97-9c92-72ac341f361c",
            "$table": "KernelSeries"
        },
        "workspace": {
            "$key": "d2135fd1-3f59-4bf6-814b-c807c1f7eff9",
            "$table": "Workspace"
        }
    }
}