{
    "ddd9fe2d-44b2-4945-8bf1-fb8927cfee46": {
        "key": "ddd9fe2d-44b2-4945-8bf1-fb8927cfee46",
        "type": "stable",
        "build_job_id": "146903431",
        "version": {
            "$key": "8f3ed7f7-20cd-4af1-8daf-c47dad9a1c41",
            "$table": "KernelVersion"
        },
        "kernel_series": {
            "$key": "83aea4d0-b730-46d1-928e-cbb0afb57827",
            "$table": "KernelSeries"
        },
        "workspace": {
            "$key": "de136960-11fb-4d66-94ee-deab390f2e1e",
            "$table": "Workspace"
        }
    }
}