{
    "de610464-2075-492e-9e13-a7162a3ad440": {
        "key": "de610464-2075-492e-9e13-a7162a3ad440",
        "type": "stable",
        "build_job_id": "166365811",
        "version": {
            "$key": "6eebeff7-b8e5-487f-a20f-73e04c53be55",
            "$table": "KernelVersion"
        },
        "kernel_series": {
            "$key": "83aea4d0-b730-46d1-928e-cbb0afb57827",
            "$table": "KernelSeries"
        },
        "workspace": {
            "$key": "de136960-11fb-4d66-94ee-deab390f2e1e",
            "$table": "Workspace"
        }
    }
}