{
    "dfb663ed-8a54-4bbd-baa3-171f02694956": {
        "key": "dfb663ed-8a54-4bbd-baa3-171f02694956",
        "type": "stable",
        "build_job_id": "135406112",
        "version": {
            "$key": "139fa72b-ccc6-4e50-8dfc-618ff726ffb6",
            "$table": "KernelVersion"
        },
        "kernel_series": {
            "$key": "db25ab70-b6ca-4887-a07e-9acf2552b0b0",
            "$table": "KernelSeries"
        },
        "workspace": {
            "$key": "112ecf7f-72dd-412d-97d9-5bf891923acd",
            "$table": "Workspace"
        }
    }
}