{
    "e3fc74a0-a6a1-4a10-b6d1-785a6b2012a4": {
        "key": "e3fc74a0-a6a1-4a10-b6d1-785a6b2012a4",
        "type": "stable",
        "build_job_id": "259815930",
        "version": {
            "$key": "9728406a-a91a-4224-b15d-ad99bc0b55ab",
            "$table": "KernelVersion"
        },
        "kernel_series": {
            "$key": "fc683acd-38f8-4163-b6cf-e6cecaa6fd07",
            "$table": "KernelSeries"
        },
        "workspace": {
            "$key": "d2135fd1-3f59-4bf6-814b-c807c1f7eff9",
            "$table": "Workspace"
        }
    }
}