{
    "eb33f462-b7b2-4793-ae86-ba0614a3234d": {
        "key": "eb33f462-b7b2-4793-ae86-ba0614a3234d",
        "type": "mainline",
        "build_job_id": "192285241",
        "version": {
            "$key": "b8dea523-51a0-42ff-b4df-211db821a01b",
            "$table": "KernelVersion"
        },
        "kernel_series": {
            "$key": "fc683acd-38f8-4163-b6cf-e6cecaa6fd07",
            "$table": "KernelSeries"
        },
        "workspace": {
            "$key": "d2135fd1-3f59-4bf6-814b-c807c1f7eff9",
            "$table": "Workspace"
        }
    }
}