{
    "f0536490-ce38-4229-9d5e-c15762e5b30b": {
        "key": "f0536490-ce38-4229-9d5e-c15762e5b30b",
        "type": "mainline",
        "build_job_id": "148725948",
        "version": {
            "$key": "3922c6cd-1094-4bfe-a1ed-f5ae7f5bb120",
            "$table": "KernelVersion"
        },
        "kernel_series": {
            "$key": "e7b394ff-e108-4ff9-816d-bb7d36ea5e7d",
            "$table": "KernelSeries"
        },
        "workspace": {
            "$key": "8154adab-14d1-47d2-9e9e-cf9d7b81e4c7",
            "$table": "Workspace"
        }
    }
}