{
    "f2662aa8-bf35-4600-92e2-538b0b3e4f48": {
        "key": "f2662aa8-bf35-4600-92e2-538b0b3e4f48",
        "type": "mainline",
        "build_job_id": "155578949",
        "version": {
            "$key": "0f5e9559-3114-4912-885c-79cdd10fd625",
            "$table": "KernelVersion"
        },
        "kernel_series": {
            "$key": "e7b394ff-e108-4ff9-816d-bb7d36ea5e7d",
            "$table": "KernelSeries"
        },
        "workspace": {
            "$key": "8154adab-14d1-47d2-9e9e-cf9d7b81e4c7",
            "$table": "Workspace"
        }
    }
}