{
    "f487f05e-e836-4a0b-9204-fa10718b6a09": {
        "key": "f487f05e-e836-4a0b-9204-fa10718b6a09",
        "type": "stable",
        "build_job_id": "552387057",
        "version": {
            "$key": "d9bd5b48-a0e8-44c4-8eb9-3d7b2c9aec17",
            "$table": "KernelVersion"
        },
        "kernel_series": {
            "$key": "d72105d8-8ae2-4c03-b4a4-aac11db1edfe",
            "$table": "KernelSeries"
        },
        "workspace": {
            "$key": "8b64bbb4-15a6-4182-a6f8-8c18da47c46e",
            "$table": "Workspace"
        }
    }
}