{
    "fd2902eb-592b-473f-8720-6c9cd7c1dfc0": {
        "key": "fd2902eb-592b-473f-8720-6c9cd7c1dfc0",
        "type": "stable",
        "build_job_id": "136927452",
        "version": {
            "$key": "7860425c-45dc-4ff8-889f-a863ccb2a3eb",
            "$table": "KernelVersion"
        },
        "kernel_series": {
            "$key": "db25ab70-b6ca-4887-a07e-9acf2552b0b0",
            "$table": "KernelSeries"
        },
        "workspace": {
            "$key": "112ecf7f-72dd-412d-97d9-5bf891923acd",
            "$table": "Workspace"
        }
    }
}