{
    "fd9929fc-f0f5-4585-ab9b-7e2543ec14ad": {
        "key": "fd9929fc-f0f5-4585-ab9b-7e2543ec14ad",
        "type": "stable",
        "build_job_id": "123428942",
        "version": {
            "$key": "b2822c7e-4bea-4cda-af89-e85be25771ef",
            "$table": "KernelVersion"
        },
        "kernel_series": {
            "$key": "db25ab70-b6ca-4887-a07e-9acf2552b0b0",
            "$table": "KernelSeries"
        },
        "workspace": {
            "$key": "3df99645-d619-4f9b-ad54-8de2bed6ee7e",
            "$table": "Workspace"
        }
    }
}